-----BEGIN PGP MESSAGE-----

hF4Dc8fxqe7aw2ASAQdAqTjTObPuwUiRtLQEgEX9hrmCujWNZBLfh9kwCwDR3FEw
ybpUXusFaZUtR7cWbB/csRuMQF0eSgFgYZYuY53TVpdN1hqv5ZRDlUY+zX8vCgke
0kgBxlDCnhLKtI402g8mz36rIxBTQSyGVAa8NekCddl95OUEwLwU84XfxsYk+Ghp
D9XPoW1l7W3bAli91QGriuv9ui+qBbxHoE8=
=nMA1
-----END PGP MESSAGE-----

